Lasso regularization
…
lasso_spec <- logistic_reg(mode = "classification", penalty = 0.1, mixture = 1) %>%
  set_engine("glmnet")

wf <- workflow() %>%
  add_recipe(mtbsl1_rec)

lasso_fit <- wf %>%
  add_model(lasso_spec) %>%
  fit(data = mtbsl1_train)

lasso_fit %>%
  pull_workflow_fit() %>%
  tidy()

## # A tibble: 189 x 3
##    term        estimate penalty
##    <chr>          <dbl>   <dbl>
##  1 (Intercept)  -0.692      0.1
##  2 mtbl_1        0          0.1
##  3 mtbl_2        0          0.1
##  4 mtbl_3        0          0.1
##  5 mtbl_4        0          0.1
##  6 mtbl_5        0          0.1
##  7 mtbl_6        0          0.1
##  8 mtbl_7        0          0.1
##  9 mtbl_8        0.0174     0.1
## 10 mtbl_9        0          0.1
## #  with 179 more rows
…
Tuning the hyperparameters

We use k-fold cross-validation to tune the hyperparameters (\(\lambda\) penalty in this case) in the training set:

diab_cv <- vfold_cv(mtbsl1_train, v=5, repeats = 10, strata = Metabolic_syndrome)

tune_spec <- logistic_reg(penalty = tune(), mixture = 1) %>%
  set_engine("glmnet")

lambda_grid <- grid_regular(penalty(), levels = 50, filter = penalty <= .05)
print(lambda_grid)

## # A tibble: 43 x 1
##     penalty
##       <dbl>
##  1 1.00e-10
##  2 1.60e-10
##  3 2.56e-10
##  4 4.09e-10
##  5 6.55e-10
##  6 1.05e- 9
##  7 1.68e- 9
##  8 2.68e- 9
##  9 4.29e- 9
## 10 6.87e- 9
## #  with 33 more rows
…
## 
## Attaching package: 'vctrs'

## The following object is masked from 'package:dplyr':
## 
##     data_frame

## The following object is masked from 'package:tibble':
## 
##     data_frame

lasso_grid %>%
  collect_metrics()

## # A tibble: 86 x 7
##     penalty .metric  .estimator  mean     n std_err .config              
##       <dbl> <chr>    <chr>      <dbl> <int>   <dbl> <chr>                
##  1 1.00e-10 accuracy binary     0.930    50 0.00795 Preprocessor1_Model01
##  2 1.00e-10 roc_auc  binary     0.981    50 0.00330 Preprocessor1_Model01
##  3 1.60e-10 accuracy binary     0.930    50 0.00795 Preprocessor1_Model02
##  4 1.60e-10 roc_auc  binary     0.981    50 0.00330 Preprocessor1_Model02
##  5 2.56e-10 accuracy binary     0.930    50 0.00795 Preprocessor1_Model03
##  6 2.56e-10 roc_auc  binary     0.981    50 0.00330 Preprocessor1_Model03
##  7 4.09e-10 accuracy binary     0.930    50 0.00795 Preprocessor1_Model04
##  8 4.09e-10 roc_auc  binary     0.981    50 0.00330 Preprocessor1_Model04
##  9 6.55e-10 accuracy binary     0.930    50 0.00795 Preprocessor1_Model05
## 10 6.55e-10 roc_auc  binary     0.981    50 0.00330 Preprocessor1_Model05
## #  with 76 more rows
…
