Random Forest for multiclass classification
…
tune_wf <- workflow() %>%
  add_formula(gender_status ~ .) %>%
  add_model(tune_spec)

Tuning the hyperparameters

We use k-fold cross-validation to tune the hyperparameters in the training set

trees_folds <- vfold_cv(training_set, v = 5, repeats = 5)

print(trees_folds)

## #  5-fold cross-validation repeated 5 times 
## # A tibble: 25 x 3
##    splits          id      id2  
##    <list>          <chr>   <chr>
##  1 <split [80/20]> Repeat1 Fold1
##  2 <split [80/20]> Repeat1 Fold2
##  3 <split [80/20]> Repeat1 Fold3
##  4 <split [80/20]> Repeat1 Fold4
##  5 <split [80/20]> Repeat1 Fold5
##  6 <split [80/20]> Repeat2 Fold1
##  7 <split [80/20]> Repeat2 Fold2
##  8 <split [80/20]> Repeat2 Fold3
##  9 <split [80/20]> Repeat2 Fold4
## 10 <split [80/20]> Repeat2 Fold5
## #  with 15 more rows
…
## The following object is masked from 'package:dplyr':
## 
##     data_frame

## The following object is masked from 'package:tibble':
## 
##     data_frame

print(tune_res)

## # Tuning results
## # 5-fold cross-validation repeated 5 times 
## # A tibble: 25 x 5
##    splits          id      id2   .metrics          .notes          
##    <list>          <chr>   <chr> <list>            <list>          
##  1 <split [80/20]> Repeat1 Fold1 <tibble [40  6]> <tibble [0  1]>
##  2 <split [80/20]> Repeat1 Fold2 <tibble [40  6]> <tibble [0  1]>
##  3 <split [80/20]> Repeat1 Fold3 <tibble [40  6]> <tibble [0  1]>
##  4 <split [80/20]> Repeat1 Fold4 <tibble [40  6]> <tibble [0  1]>
##  5 <split [80/20]> Repeat1 Fold5 <tibble [40  6]> <tibble [0  1]>
##  6 <split [80/20]> Repeat2 Fold1 <tibble [40  6]> <tibble [0  1]>
##  7 <split [80/20]> Repeat2 Fold2 <tibble [40  6]> <tibble [0  1]>
##  8 <split [80/20]> Repeat2 Fold3 <tibble [40  6]> <tibble [0  1]>
##  9 <split [80/20]> Repeat2 Fold4 <tibble [40  6]> <tibble [0  1]>
## 10 <split [80/20]> Repeat2 Fold5 <tibble [40  6]> <tibble [0  1]>
## #  with 15 more rows
…
regular_res <- tune_grid(
  tune_wf,
  resamples = trees_folds,
  grid = rf_grid
)

print(regular_res)

## # Tuning results
## # 5-fold cross-validation repeated 5 times 
## # A tibble: 25 x 5
##    splits          id      id2   .metrics          .notes          
##    <list>          <chr>   <chr> <list>            <list>          
##  1 <split [80/20]> Repeat1 Fold1 <tibble [18  6]> <tibble [0  1]>
##  2 <split [80/20]> Repeat1 Fold2 <tibble [18  6]> <tibble [0  1]>
##  3 <split [80/20]> Repeat1 Fold3 <tibble [18  6]> <tibble [0  1]>
##  4 <split [80/20]> Repeat1 Fold4 <tibble [18  6]> <tibble [0  1]>
##  5 <split [80/20]> Repeat1 Fold5 <tibble [18  6]> <tibble [0  1]>
##  6 <split [80/20]> Repeat2 Fold1 <tibble [18  6]> <tibble [0  1]>
##  7 <split [80/20]> Repeat2 Fold2 <tibble [18  6]> <tibble [0  1]>
##  8 <split [80/20]> Repeat2 Fold3 <tibble [18  6]> <tibble [0  1]>
##  9 <split [80/20]> Repeat2 Fold4 <tibble [18  6]> <tibble [0  1]>
## 10 <split [80/20]> Repeat2 Fold5 <tibble [18  6]> <tibble [0  1]>
## #  with 15 more rows
…
Predictions

final_res %>%
  collect_predictions()

## # A tibble: 32 x 9
##    id    `.pred_Female_C `.pred_Female_d `.pred_Male_Con `.pred_Male_dia
##    <chr>            <dbl>            <dbl>            <dbl>            <dbl>
##  1 trai             0.4             0.2               0.08             0.32
##  2 trai             0.34            0.36              0.08             0.22
##  3 trai             0.2             0.22              0.23             0.35
##  4 trai             0.08            0.07              0.68             0.17
##  5 trai             0.14            0.23              0.07             0.56
##  6 trai             0.15            0.290             0.2              0.36
##  7 trai             0.14            0.48              0.13             0.25
##  8 trai             0.15            0.67              0.05             0.13
##  9 trai             0.17            0.64              0.04             0.15
## 10 trai             0.15            0.69              0.08             0.08
## #  with 22 more rows, and 4 more variables: .row <int>, .pred_class <fct>,
## #   gender_status <fct>, .config <chr>
…
