Boosting: a first encounter
…
## 
## Attaching package: 'vctrs'

## The following object is masked from 'package:tibble':
## 
##     data_frame

## The following object is masked from 'package:dplyr':
## 
##     data_frame

## explore tuning results
collect_metrics(xgboost_tuned)

## # A tibble: 30 x 9
##    min_n tree_depth learn_rate .metric  .estimator  mean     n std_err .config  
##    <int>      <int>      <dbl> <chr>    <chr>      <dbl> <int>   <dbl> <chr>    
##  1    28          6   5.20e- 9 accuracy multiclass 0.211    25 0.00144 Preproce
##  2    28          6   5.20e- 9 roc_auc  hand_till  0.5      25 0       Preproce
##  3    24          7   2.52e- 5 accuracy multiclass 0.422    25 0.00287 Preproce
##  4    24          7   2.52e- 5 roc_auc  hand_till  0.5      25 0       Preproce
##  5    22         14   9.16e- 2 accuracy multiclass 0.422    25 0.00287 Preproce
##  6    22         14   9.16e- 2 roc_auc  hand_till  0.5      25 0       Preproce
##  7     7          3   2.63e- 8 accuracy multiclass 0.511    25 0.0206  Preproce
##  8     7          3   2.63e- 8 roc_auc  hand_till  0.687    25 0.0159  Preproce
##  9     3          9   2.92e-10 accuracy multiclass 0.211    25 0.00144 Preproce
## 10     3          9   2.92e-10 roc_auc  hand_till  0.5      25 0       Preproce
## #  with 20 more rows
…
